simulation/qsim/Somado_Completo.msim.vcd
$comment
	File created using the following command:
		vcd file Somado_Completo.msim.vcd -direction
$end
$date
	Sun Oct 23 08:54:57 2016
$end
$version
	ModelSim Version 10.4d
$end
$timescale
	1ps
$end

$scope module Somado_Completo_vlg_vec_tst $end
$var reg 1 ! cin $end
$var reg 1 " x $end
$var reg 1 # y $end
$var wire 1 $ cout $end
$var wire 1 % s $end

$scope module i1 $end
$var wire 1 & gnd $end
$var wire 1 ' vcc $end
$var wire 1 ( unknown $end
$var tri1 1 ) devclrn $end
$var tri1 1 * devpor $end
$var tri1 1 + devoe $end
$var wire 1 , s~output_o $end
$var wire 1 - cout~output_o $end
$var wire 1 . cin~input_o $end
$var wire 1 / y~input_o $end
$var wire 1 0 x~input_o $end
$var wire 1 1 inst1|inst2~0_combout $end
$var wire 1 2 inst2~0_combout $end
$upscope $end
$upscope $end
$enddefinitions $end
#0
$dumpvars
0!
0"
0#
x$
x%
0&
1'
x(
1)
1*
1+
x,
x-
0.
0/
00
x1
x2
$end
#4141
02
#4203
01
#7793
0,
0%
#7881
0-
0$
#50000
1!
#50685
1.
#54591
11
#58220
1,
1%
#100000
1"
0!
#100685
10
#100801
0.
#150000
1!
#150685
1.
#154566
12
#154601
01
#158191
0,
0%
#158372
1-
1$
#200000
1#
0"
0!
#200685
1/
#200801
0.
00
#204085
11
#205004
02
#207714
1,
1%
#208744
0-
0$
#250000
1!
#250685
1.
#254566
12
#254601
01
#258191
0,
0%
#258372
1-
1$
#300000
1"
0!
#300685
10
#300801
0.
#350000
1!
#350685
1.
#354591
11
#358220
1,
1%
